@startuml
skinparam class {
	BackgroundColor PaleGreen
	BorderColor Green
	ArrowColor black
	FontSize 28
	BackgroundColor<<USP>> Pink
	BorderColor<<USP>> HotPink
}

skinparam backgroundColor Linen
skinparam linetype ortho
skinparam shadowing true
skinparam minClassWidth 200
skinparam LegendBackgroundColor Strategy
skinparam LegendBorderThickness 0
skinparam LegendFontSize 20
skinparam defaultFontSize 20
skinparam Padding 8
skinparam Nodesep 150
skinparam ArrowThickness 1
skinparam ArrowColor DarkSlateGray

package "Model" <<Rectangle>> {
class Engine{
transitions Vector3
Signals Vector3 
state State
}
class Validate {}
Engine ..o Validate
}
package "View" <<Rectangle>>{

class Show {
bars Bar[]
signals Signal[]
transitions transitions[]
buttons button[]
}

class Button {
name
description
function
appearance
locality Position
}
class Bar {
locality
buttons[]
}
class Node {
locality position
tokens
arrowlist
}
class Transition{
node
Appearance
}
class Signal{
node
Appearance
fireable
}
class Arrow{
 weight
 description
 pref<T>
 next<T>
}
Bar ..* Button
Signal ..o Node
Transition ..o Node
Node ..* Arrow
Show ..* Transition
Show ..* Signal
Show ..* Bar
}
package "Controller" <<Rectangle>>{
class Observer{
file_handle
view_handle
model_handl
}
class SessionHandle{
save
new
delete
}
Observer ..* SessionHandle
}
package "Dataclasses" <<Rectangle>>{
enum State {
LIVING
DEADLOCKFREE
WEAKLIVING
TERMINATED
REVERSIBLE
KLIMITED
}
class Container<T,G>{
x:T
y:G
}
}
Engine ..o State
Observer ..o Show
Show ..o Observer
Observer ..* Engine
legend right
  |<> |= Pipeweb |
  | Domain-Glossar | [[https://git.thm.de/arsnova/frag.jetzt/-/blob/staging/Glossary.md]] |
  | Produktion | [[https://Erik.pipe]] |
  | Repository | [[https://magrathea.mni.thm.de/projects/swtp-24ss-hartmann/repository]] |
  | Staging Server | [[https://staging.erik.pipe]] |
  | UML-Tool| PlantUML-Server Version 1202202|
  | Ersteller| Steven H.G. Fleischer|
  |Bearbeitet durch| Steven Herbert Gerd Fleischer|
  | Kontakt| [[mailto:steven.herbert.gerd.fleischer@mni.thm.de]] |
  | Erstellt| 25.04.2024 |
  | Letzte anderung| 25.04.2024 |
end legend
@enduml

@enduml